{
    "payload": {
        "uuid": "e68e0e0b-0f6b-41a2-8ca2-c5f588baa755",
        "last_name": null,
        "email": "apps+suadmin@elegantmedia.com.au",
        "avatar_url": null,
        "timezone": "Australia\/Melbourne",
        "first_name": "Tony Stark (SUPER-ADMIN)",
        "full_name": "Tony Stark (SUPER-ADMIN)",
        "access_token": "1627554853CeWnz9aBP32DzdfSmsF9baCwX3NfZCsFlNb"
    },
    "message": "",
    "result": true
}